^C:\USERS\KYLE MARASIGAN\DESKTOP\CIRCLE\CIRCLE\CIRCLE.CPP
/c /ZI /nologo /W3 /WX- /sdl /Od /D _DEBUG /D _CONSOLE /D _UNICODE /D UNICODE /Gm /EHsc /RTC1 /MDd /GS /fp:precise /Zc:wchar_t /Zc:forScope /Zc:inline /Fo"X64\DEBUG\\" /Fd"X64\DEBUG\VC140.PDB" /Gd /TP C:\USERS\KYLE MARASIGAN\DESKTOP\CIRCLE\CIRCLE\CIRCLE.CPP
^C:\USERS\KYLE MARASIGAN\DESKTOP\CIRCLE\CIRCLE\SOURCE.CPP
/c /ZI /nologo /W3 /WX- /sdl /Od /D _DEBUG /D _CONSOLE /D _UNICODE /D UNICODE /Gm /EHsc /RTC1 /MDd /GS /fp:precise /Zc:wchar_t /Zc:forScope /Zc:inline /Fo"X64\DEBUG\\" /Fd"X64\DEBUG\VC140.PDB" /Gd /TP C:\USERS\KYLE MARASIGAN\DESKTOP\CIRCLE\CIRCLE\SOURCE.CPP
^C:\USERS\KYLE MARASIGAN\DOCUMENTS\APLCALC-LAB-TG001\APLCALC - MIDTERMS\CIRCLE\CIRCLE\CIRCLE.CPP
/c /ZI /nologo /W3 /WX- /sdl /Od /D _DEBUG /D _CONSOLE /D _UNICODE /D UNICODE /Gm /EHsc /RTC1 /MDd /GS /fp:precise /Zc:wchar_t /Zc:forScope /Zc:inline /Fo"X64\DEBUG\\" /Fd"X64\DEBUG\VC140.PDB" /Gd /TP C:\USERS\KYLE MARASIGAN\DOCUMENTS\APLCALC-LAB-TG001\APLCALC - MIDTERMS\CIRCLE\CIRCLE\CIRCLE.CPP
^C:\USERS\KYLE MARASIGAN\DOCUMENTS\APLCALC-LAB-TG001\APLCALC - MIDTERMS\CIRCLE\CIRCLE\SOURCE.CPP
/c /ZI /nologo /W3 /WX- /sdl /Od /D _DEBUG /D _CONSOLE /D _UNICODE /D UNICODE /Gm /EHsc /RTC1 /MDd /GS /fp:precise /Zc:wchar_t /Zc:forScope /Zc:inline /Fo"X64\DEBUG\\" /Fd"X64\DEBUG\VC140.PDB" /Gd /TP C:\USERS\KYLE MARASIGAN\DOCUMENTS\APLCALC-LAB-TG001\APLCALC - MIDTERMS\CIRCLE\CIRCLE\SOURCE.CPP
^C:\USERS\KYLE MARASIGAN\DOCUMENTS\APLCALC-LAB-TG001\APLCALC - MIDTERMS\CIRCLE CIRCLE\CIRCLE\CIRCLE.CPP
/c /ZI /nologo /W3 /WX- /sdl /Od /D _DEBUG /D _CONSOLE /D _UNICODE /D UNICODE /Gm /EHsc /RTC1 /MDd /GS /fp:precise /Zc:wchar_t /Zc:forScope /Zc:inline /Fo"X64\DEBUG\\" /Fd"X64\DEBUG\VC140.PDB" /Gd /TP C:\USERS\KYLE MARASIGAN\DOCUMENTS\APLCALC-LAB-TG001\APLCALC - MIDTERMS\CIRCLE CIRCLE\CIRCLE\CIRCLE.CPP
^C:\USERS\KYLE MARASIGAN\DOCUMENTS\APLCALC-LAB-TG001\APLCALC - MIDTERMS\CIRCLE CIRCLE\CIRCLE\SOURCE.CPP
/c /ZI /nologo /W3 /WX- /sdl /Od /D _DEBUG /D _CONSOLE /D _UNICODE /D UNICODE /Gm /EHsc /RTC1 /MDd /GS /fp:precise /Zc:wchar_t /Zc:forScope /Zc:inline /Fo"X64\DEBUG\\" /Fd"X64\DEBUG\VC140.PDB" /Gd /TP C:\USERS\KYLE MARASIGAN\DOCUMENTS\APLCALC-LAB-TG001\APLCALC - MIDTERMS\CIRCLE CIRCLE\CIRCLE\SOURCE.CPP
